{
  "dev": {
    "ENV": "development",
    "PORT": "8081",
    "DB_NAME": "forever-dev"
  },
  "test": {
    "ENV": "test",
    "PORT": "8082",
    "DB_NAME": "forever-test"
  },
  "prod": {
    "ENV": "production",
    "PORT": "8080",
    "DB_NAME": "forever-prod"
  }
}